\relax 
\providecommand\hyper@newdestlabel[2]{}
\providecommand\HyperFirstAtBeginDocument{\AtBeginDocument}
\HyperFirstAtBeginDocument{\ifx\hyper@anchor\@undefined
\global\let\oldcontentsline\contentsline
\gdef\contentsline#1#2#3#4{\oldcontentsline{#1}{#2}{#3}}
\global\let\oldnewlabel\newlabel
\gdef\newlabel#1#2{\newlabelxx{#1}#2}
\gdef\newlabelxx#1#2#3#4#5#6{\oldnewlabel{#1}{{#2}{#3}}}
\AtEndDocument{\ifx\hyper@anchor\@undefined
\let\contentsline\oldcontentsline
\let\newlabel\oldnewlabel
\fi}
\fi}
\global\let\hyper@last\relax 
\gdef\HyperFirstAtBeginDocument#1{#1}
\providecommand\HyField@AuxAddToFields[1]{}
\providecommand\HyField@AuxAddToCoFields[2]{}
\@writefile{toc}{\contentsline {section}{\numberline {1}The paper}{1}{section.1}\protected@file@percent }
\@writefile{toc}{\contentsline {subsection}{\numberline {1.1}Tradeoffs}{1}{subsection.1.1}\protected@file@percent }
\@writefile{toc}{\contentsline {section}{\numberline {2}Implementation and tests}{1}{section.2}\protected@file@percent }
\@writefile{toc}{\contentsline {subsection}{\numberline {2.1}Time analysis}{1}{subsection.2.1}\protected@file@percent }
\@writefile{lof}{\contentsline {figure}{\numberline {1}{\ignorespaces Average time of operations in relation to memory usage\relax }}{2}{figure.caption.1}\protected@file@percent }
\providecommand*\caption@xref[2]{\@setref\relax\@undefined{#1}}
\newlabel{plot:tempi}{{1}{2}{Average time of operations in relation to memory usage\relax }{figure.caption.1}{}}
\@writefile{toc}{\contentsline {subsection}{\numberline {2.2}Memory analysis}{3}{subsection.2.2}\protected@file@percent }
\@writefile{lot}{\contentsline {table}{\numberline {1}{\ignorespaces Memory usage in relation to $r$ and $mll$ (Size of text: 92758441 chars)\relax }}{3}{table.caption.2}\protected@file@percent }
\newlabel{tbl:memoria}{{1}{3}{Memory usage in relation to $r$ and $mll$ (Size of text: 92758441 chars)\relax }{table.caption.2}{}}
\@writefile{toc}{\contentsline {subsection}{\numberline {2.3}Troubleshooting}{3}{subsection.2.3}\protected@file@percent }
